<?xml version="1.0" encoding="UTF-8"?>
<svg width="406px" height="118px" viewBox="0 0 406 118" version="1.1" xmlns="http://www.w3.org/2000/svg" xmlns:xlink="http://www.w3.org/1999/xlink">
    <!-- Generator: Sketch 52.5 (67469) - http://www.bohemiancoding.com/sketch -->
    <title>continue</title>
    <desc>Created with Sketch.</desc>
    <defs>
        <polygon id="path-1" points="353.215415 97.1035671 18.315185 86.3364233 0.814569102 3.71642764 390.475413 4.76357202"></polygon>
        <filter x="-3.2%" y="-13.4%" width="110.3%" height="153.5%" filterUnits="objectBoundingBox" id="filter-2">
            <feOffset dx="15" dy="25" in="SourceAlpha" result="shadowOffsetOuter1"></feOffset>
            <feColorMatrix values="0 0 0 0 0   0 0 0 0 0   0 0 0 0 0  0 0 0 0.15 0" type="matrix" in="shadowOffsetOuter1"></feColorMatrix>
        </filter>
    </defs>
    <g id="Page-1" stroke="none" stroke-width="1" fill="none" fill-rule="evenodd">
        <g id="Artboard-Copy-3" transform="translate(-774.000000, -684.000000)">
            <g id="continue" transform="translate(774.000000, 683.000000)">
                <g id="Fill-3" transform="translate(195.644991, 50.409997) rotate(-1.000000) translate(-195.644991, -50.409997) ">
                    <use fill="black" fill-opacity="1" filter="url(#filter-2)" xlink:href="#path-1"></use>
                    <use fill="#E73493" fill-rule="evenodd" xlink:href="#path-1"></use>
                </g>
                <path d="M59.8424985,59.5709988 C62.8394984,59.5709988 65.3909982,58.1129988 66.9299982,55.9259989 C67.2539981,55.399499 67.8209981,55.237499 68.3474981,55.480499 L73.9769978,57.9509988 C74.4224978,58.1129988 74.6249977,58.7609988 74.3414978,59.1659988 C71.4659979,64.1069985 65.9984982,67.3874983 59.8424985,67.3874983 C50.729999,67.3874983 43.0754994,60.0164987 43.0754994,50.9849992 C43.0754994,41.9534997 50.729999,34.5825001 59.8424985,34.5825001 C65.9984982,34.5825001 71.3849979,37.8629999 74.3009978,42.7229996 C74.5439978,43.1279996 74.3819978,43.7759996 73.9364978,43.9784996 L68.3474981,46.4489994 C67.8209981,46.7324994 67.2539981,46.5704994 66.9299982,46.0439995 C65.3909982,43.8569996 62.7989984,42.3989997 59.8424985,42.3989997 C55.1039988,42.3989997 51.256499,46.2059995 51.256499,50.9849992 C51.256499,55.763999 55.1039988,59.5709988 59.8424985,59.5709988 Z M95.3609965,67.3874983 C86.248497,67.3874983 78.5939974,60.0164987 78.5939974,50.9849992 C78.5939974,41.9534997 86.248497,34.5825001 95.3609965,34.5825001 C104.594996,34.5825001 112.127996,41.9534997 112.127996,50.9849992 C112.127996,60.0164987 104.594996,67.3874983 95.3609965,67.3874983 Z M95.3609965,42.3989997 C90.6224968,42.3989997 86.774997,46.2059995 86.774997,50.9849992 C86.774997,55.763999 90.6224968,59.5709988 95.3609965,59.5709988 C100.220996,59.5709988 103.946996,55.763999 103.946996,50.9849992 C103.946996,46.2059995 100.220996,42.3989997 95.3609965,42.3989997 Z M125.978995,49.9724993 L125.978995,65.8079984 C125.978995,66.3344984 125.533495,66.7799984 125.006995,66.7799984 L118.891495,66.7799984 C118.364995,66.7799984 117.919495,66.3344984 117.919495,65.8079984 L117.919495,36.162 C117.919495,35.6355 118.364995,35.19 118.891495,35.19 L123.791995,35.19 C124.399495,35.19 125.006995,35.4735 125.371495,35.9595 L138.371994,52.1999991 C138.533994,52.4429991 138.857994,52.3214991 138.857994,52.0379992 L138.857994,36.162 C138.857994,35.6355 139.303494,35.19 139.829994,35.19 L145.945494,35.19 C146.471994,35.19 146.917494,35.6355 146.917494,36.162 L146.917494,65.8079984 C146.917494,66.3344984 146.471994,66.7799984 145.945494,66.7799984 L141.044994,66.7799984 C140.437494,66.7799984 139.829994,66.4964984 139.465494,66.0104984 L126.464995,49.8104993 C126.302995,49.5674993 125.978995,49.6889993 125.978995,49.9724993 Z M161.294993,43.0469996 L153.235493,43.0469996 C152.708993,43.0469996 152.263493,42.6014997 152.263493,42.0749997 L152.263493,36.162 C152.263493,35.6355 152.708993,35.19 153.235493,35.19 L179.074492,35.19 C179.600992,35.19 180.046492,35.6355 180.046492,36.162 L180.046492,42.0749997 C180.046492,42.6014997 179.600992,43.0469996 179.074492,43.0469996 L171.014992,43.0469996 C170.569492,43.0469996 170.204992,43.4114996 170.204992,43.8569996 L170.204992,65.8079984 C170.204992,66.3344984 169.759492,66.7799984 169.232992,66.7799984 L163.076993,66.7799984 C162.550493,66.7799984 162.104993,66.3344984 162.104993,65.8079984 L162.104993,43.8569996 C162.104993,43.4114996 161.740493,43.0469996 161.294993,43.0469996 Z M185.392491,65.8079984 L185.392491,36.162 C185.392491,35.6355 185.837991,35.19 186.364491,35.19 L192.520491,35.19 C193.046991,35.19 193.492491,35.6355 193.492491,36.162 L193.492491,65.8079984 C193.492491,66.3344984 193.046991,66.7799984 192.520491,66.7799984 L186.364491,66.7799984 C185.837991,66.7799984 185.392491,66.3344984 185.392491,65.8079984 Z M208.84199,49.9724993 L208.84199,65.8079984 C208.84199,66.3344984 208.39649,66.7799984 207.86999,66.7799984 L201.75449,66.7799984 C201.227991,66.7799984 200.782491,66.3344984 200.782491,65.8079984 L200.782491,36.162 C200.782491,35.6355 201.227991,35.19 201.75449,35.19 L206.65499,35.19 C207.26249,35.19 207.86999,35.4735 208.23449,35.9595 L221.234989,52.1999991 C221.396989,52.4429991 221.720989,52.3214991 221.720989,52.0379992 L221.720989,36.162 C221.720989,35.6355 222.166489,35.19 222.692989,35.19 L228.808489,35.19 C229.334989,35.19 229.780489,35.6355 229.780489,36.162 L229.780489,65.8079984 C229.780489,66.3344984 229.334989,66.7799984 228.808489,66.7799984 L223.907989,66.7799984 C223.300489,66.7799984 222.692989,66.4964984 222.328489,66.0104984 L209.32799,49.8104993 C209.16599,49.5674993 208.84199,49.6889993 208.84199,49.9724993 Z M257.603987,52.4834991 L257.603987,36.162 C257.603987,35.6355 258.049487,35.19 258.575987,35.19 L264.691487,35.19 C265.217987,35.19 265.663487,35.6355 265.663487,36.162 L265.663487,52.9694991 C265.663487,61.1099987 260.560487,67.3874983 251.123988,67.3874983 C241.646988,67.3874983 236.624989,61.1099987 236.624989,52.9694991 L236.624989,36.162 C236.624989,35.6355 237.070488,35.19 237.596988,35.19 L243.752988,35.19 C244.279488,35.19 244.724988,35.6355 244.724988,36.162 L244.724988,52.4834991 C244.724988,57.0599989 246.911988,59.5709988 251.123988,59.5709988 C255.376488,59.5709988 257.603987,57.0599989 257.603987,52.4834991 Z M295.795485,66.7799984 L273.479986,66.7799984 C272.953486,66.7799984 272.507987,66.3344984 272.507987,65.8079984 L272.507987,36.162 C272.507987,35.6355 272.953486,35.19 273.479986,35.19 L295.795485,35.19 C296.321985,35.19 296.767485,35.6355 296.767485,36.162 L296.767485,42.0749997 C296.767485,42.6014997 296.321985,43.0469996 295.795485,43.0469996 L281.417986,43.0469996 C280.972486,43.0469996 280.607986,43.4114996 280.607986,43.8569996 L280.607986,46.7729994 C280.607986,47.2184994 280.972486,47.5829994 281.417986,47.5829994 L292.919985,47.5829994 C293.446485,47.5829994 293.891985,48.0284994 293.891985,48.5549993 L293.891985,53.941499 C293.891985,54.467999 293.446485,54.913499 292.919985,54.913499 L281.417986,54.913499 C280.972486,54.913499 280.607986,55.277999 280.607986,55.723499 L280.607986,58.1534988 C280.607986,58.5989988 280.972486,58.9634988 281.417986,58.9634988 L295.795485,58.9634988 C296.321985,58.9634988 296.767485,59.4089988 296.767485,59.9354987 L296.767485,65.8079984 C296.767485,66.3344984 296.321985,66.7799984 295.795485,66.7799984 Z" id="Continue" fill="#A33C34"></path>
                <path d="M54.9824988,54.710999 C57.9794986,54.710999 60.5309985,53.2529991 62.0699984,51.0659992 C62.3939984,50.5394992 62.9609984,50.3774992 63.4874983,50.6204992 L69.116998,53.0909991 C69.562498,53.2529991 69.764998,53.9009991 69.481498,54.305999 C66.6059982,59.2469988 61.1384985,62.5274986 54.9824988,62.5274986 C45.8699993,62.5274986 38.2154997,55.156499 38.2154997,46.1249995 C38.2154997,37.0934999 45.8699993,29.7225003 54.9824988,29.7225003 C61.1384985,29.7225003 66.5249982,33.0030002 69.440998,37.8629999 C69.683998,38.2679999 69.521998,38.9159998 69.076498,39.1184998 L63.4874983,41.5889997 C62.9609984,41.8724997 62.3939984,41.7104997 62.0699984,41.1839997 C60.5309985,38.9969998 57.9389986,37.5389999 54.9824988,37.5389999 C50.243999,37.5389999 46.3964992,41.3459997 46.3964992,46.1249995 C46.3964992,50.9039992 50.243999,54.710999 54.9824988,54.710999 Z M90.5009968,62.5274986 C81.3884973,62.5274986 73.7339977,55.156499 73.7339977,46.1249995 C73.7339977,37.0934999 81.3884973,29.7225003 90.5009968,29.7225003 C99.7349963,29.7225003 107.267996,37.0934999 107.267996,46.1249995 C107.267996,55.156499 99.7349963,62.5274986 90.5009968,62.5274986 Z M90.5009968,37.5389999 C85.762497,37.5389999 81.9149973,41.3459997 81.9149973,46.1249995 C81.9149973,50.9039992 85.762497,54.710999 90.5009968,54.710999 C95.3609965,54.710999 99.0869963,50.9039992 99.0869963,46.1249995 C99.0869963,41.3459997 95.3609965,37.5389999 90.5009968,37.5389999 Z M121.118995,45.1124995 L121.118995,60.9479987 C121.118995,61.4744987 120.673495,61.9199986 120.146995,61.9199986 L114.031495,61.9199986 C113.504995,61.9199986 113.059495,61.4744987 113.059495,60.9479987 L113.059495,31.3020002 C113.059495,30.7755003 113.504995,30.3300003 114.031495,30.3300003 L118.931995,30.3300003 C119.539495,30.3300003 120.146995,30.6135003 120.511495,31.0995003 L133.511994,47.3399994 C133.673994,47.5829994 133.997994,47.4614994 133.997994,47.1779994 L133.997994,31.3020002 C133.997994,30.7755003 134.443494,30.3300003 134.969994,30.3300003 L141.085494,30.3300003 C141.611994,30.3300003 142.057494,30.7755003 142.057494,31.3020002 L142.057494,60.9479987 C142.057494,61.4744987 141.611994,61.9199986 141.085494,61.9199986 L136.184994,61.9199986 C135.577494,61.9199986 134.969994,61.6364986 134.605494,61.1504987 L121.604995,44.9504995 C121.442995,44.7074995 121.118995,44.8289995 121.118995,45.1124995 Z M156.434993,38.1869999 L148.375494,38.1869999 C147.848994,38.1869999 147.403494,37.7414999 147.403494,37.2149999 L147.403494,31.3020002 C147.403494,30.7755003 147.848994,30.3300003 148.375494,30.3300003 L174.214492,30.3300003 C174.740992,30.3300003 175.186492,30.7755003 175.186492,31.3020002 L175.186492,37.2149999 C175.186492,37.7414999 174.740992,38.1869999 174.214492,38.1869999 L166.154993,38.1869999 C165.709493,38.1869999 165.344993,38.5514999 165.344993,38.9969998 L165.344993,60.9479987 C165.344993,61.4744987 164.899493,61.9199986 164.372993,61.9199986 L158.216993,61.9199986 C157.690493,61.9199986 157.244993,61.4744987 157.244993,60.9479987 L157.244993,38.9969998 C157.244993,38.5514999 156.880493,38.1869999 156.434993,38.1869999 Z M180.532492,60.9479987 L180.532492,31.3020002 C180.532492,30.7755003 180.977992,30.3300003 181.504492,30.3300003 L187.660491,30.3300003 C188.186991,30.3300003 188.632491,30.7755003 188.632491,31.3020002 L188.632491,60.9479987 C188.632491,61.4744987 188.186991,61.9199986 187.660491,61.9199986 L181.504492,61.9199986 C180.977992,61.9199986 180.532492,61.4744987 180.532492,60.9479987 Z M203.98199,45.1124995 L203.98199,60.9479987 C203.98199,61.4744987 203.53649,61.9199986 203.00999,61.9199986 L196.894491,61.9199986 C196.367991,61.9199986 195.922491,61.4744987 195.922491,60.9479987 L195.922491,31.3020002 C195.922491,30.7755003 196.367991,30.3300003 196.894491,30.3300003 L201.79499,30.3300003 C202.40249,30.3300003 203.00999,30.6135003 203.37449,31.0995003 L216.37499,47.3399994 C216.53699,47.5829994 216.86099,47.4614994 216.86099,47.1779994 L216.86099,31.3020002 C216.86099,30.7755003 217.30649,30.3300003 217.83299,30.3300003 L223.948489,30.3300003 C224.474989,30.3300003 224.920489,30.7755003 224.920489,31.3020002 L224.920489,60.9479987 C224.920489,61.4744987 224.474989,61.9199986 223.948489,61.9199986 L219.04799,61.9199986 C218.44049,61.9199986 217.83299,61.6364986 217.46849,61.1504987 L204.46799,44.9504995 C204.30599,44.7074995 203.98199,44.8289995 203.98199,45.1124995 Z M252.743988,47.6234994 L252.743988,31.3020002 C252.743988,30.7755003 253.189488,30.3300003 253.715988,30.3300003 L259.831487,30.3300003 C260.357987,30.3300003 260.803487,30.7755003 260.803487,31.3020002 L260.803487,48.1094994 C260.803487,56.2499989 255.700488,62.5274986 246.263988,62.5274986 C236.786989,62.5274986 231.764989,56.2499989 231.764989,48.1094994 L231.764989,31.3020002 C231.764989,30.7755003 232.210489,30.3300003 232.736989,30.3300003 L238.892988,30.3300003 C239.419488,30.3300003 239.864988,30.7755003 239.864988,31.3020002 L239.864988,47.6234994 C239.864988,52.1999991 242.051988,54.710999 246.263988,54.710999 C250.516488,54.710999 252.743988,52.1999991 252.743988,47.6234994 Z M290.935486,61.9199986 L268.619987,61.9199986 C268.093487,61.9199986 267.647987,61.4744987 267.647987,60.9479987 L267.647987,31.3020002 C267.647987,30.7755003 268.093487,30.3300003 268.619987,30.3300003 L290.935486,30.3300003 C291.461986,30.3300003 291.907485,30.7755003 291.907485,31.3020002 L291.907485,37.2149999 C291.907485,37.7414999 291.461986,38.1869999 290.935486,38.1869999 L276.557986,38.1869999 C276.112486,38.1869999 275.747986,38.5514999 275.747986,38.9969998 L275.747986,41.9129997 C275.747986,42.3584997 276.112486,42.7229996 276.557986,42.7229996 L288.059986,42.7229996 C288.586486,42.7229996 289.031986,43.1684996 289.031986,43.6949996 L289.031986,49.0814993 C289.031986,49.6079993 288.586486,50.0534993 288.059986,50.0534993 L276.557986,50.0534993 C276.112486,50.0534993 275.747986,50.4179992 275.747986,50.8634992 L275.747986,53.2934991 C275.747986,53.7389991 276.112486,54.103499 276.557986,54.103499 L290.935486,54.103499 C291.461986,54.103499 291.907485,54.548999 291.907485,55.075499 L291.907485,60.9479987 C291.907485,61.4744987 291.461986,61.9199986 290.935486,61.9199986 Z" id="Continue" fill="#FFFFFF"></path>
                <path d="M315.694987,40.506927 L315.694987,66.936413 C315.694987,67.8311142 316.420285,68.5564129 317.314987,68.5564129 C317.585094,68.5564129 317.850914,68.4888754 318.088263,68.3599449 L345.534268,53.4510041 C346.320463,53.0239352 346.611592,52.0403905 346.184523,51.2541956 C346.008663,50.9304529 345.727704,50.676324 345.387994,50.5337296 L317.94199,39.0131844 C317.117018,38.6669002 316.167528,39.0549527 315.821244,39.8799239 C315.737909,40.0784577 315.694987,40.2916123 315.694987,40.506927 Z" id="Path-3" fill="#A33C34" fill-rule="nonzero"></path>
                <path d="M313.264987,34.8369273 L313.264987,61.2664133 C313.264987,62.1611145 313.990286,62.8864132 314.884987,62.8864132 C315.155094,62.8864132 315.420914,62.8188757 315.658263,62.6899452 L343.104268,47.7810044 C343.890463,47.3539355 344.181592,46.3703908 343.754523,45.5841959 C343.578663,45.2604532 343.297705,45.0063243 342.957995,44.8637299 L315.51199,33.3431847 C314.687019,32.9969005 313.737528,33.384953 313.391244,34.2099242 C313.307909,34.408458 313.264987,34.6216126 313.264987,34.8369273 Z" id="Path-3-Copy" fill="#FFAE28" fill-rule="nonzero"></path>
            </g>
        </g>
    </g>
</svg>